STATS 326/786
…
Read in the data using read_csv (dont use read.csv).

Convert the Month variable into the correct date format. Hint: You will need to use a function from the tsibble package.

Coerce your tibble to a tsibble object with Month as the index.

auckland_temps <- read.csv("auckland_temps.csv")

auckland_temps <- auckland_temps %>%
  mutate(Month = yearmonth(Month)) %>%
  as_tsibble(index = Month)

print(auckland_temps, n = 10)

## # A tsibble: 355 x 2 [1M]
##       Month Temperature
##       <mth>       <dbl>
##  1 1994 Jul        10.5
##  2 1994 Aug        11  
##  3 1994 Sep        12.2
##  4 1994 Oct        13.6
##  5 1994 Nov        15.7
##  6 1994 Dec        18.7
##  7 1995 Jan        19.7
##  8 1995 Feb        20.5
##  9 1995 Mar        19  
## 10 1995 Apr        18.2
## #  345 more rows
…
